{
    "@class": "com.kony.gen.viz.model.component.KVizButton",
    "DNDConfig": null,
    "__parentReadjusting__": false,
    "_height_": {
        "type": "string",
        "value": "50dp"
    },
    "_left_": {
        "type": "string",
        "value": "280dp"
    },
    "_margin_": [
        6,
        6,
        6,
        6
    ],
    "_padding_": [
        0,
        0,
        0,
        0
    ],
    "_skin_": "s25980b937144e76ba6d228531fe8ee3",
    "_text_": "Button",
    "_top_": {
        "type": "string",
        "value": "17dp"
    },
    "_width_": {
        "type": "string",
        "value": "53dp"
    },
    "canUpdateUI": true,
    "containerId": true,
    "containerweight": 100,
    "contentalignment": 5,
    "displaytext": true,
    "focusskin": "sa18c4e31a4d4822bb0562c47a2c9f77",
    "id": "btnScreening",
    "info": null,
    "isSegmentChild": true,
    "isvisible": true,
    "kuid": "c605fb139c20425691658ac51bf84926",
    "name": "kony.ui.Button",
    "parent": "FBox0h360650a31304a",
    "pf": "FBox0h360650a31304a",
    "wType": "Button",
    "zindex": 1
}