{
    "assetPlatform": "Visualizer",
    "assetVersion": "1.0.0",
    "createdBy": "ievgen.nikolskyi@gmail.com",
    "createdVizVersion": "8.0.0",
    "currentVizVersion": "8.0.0",
    "itemCategory": "app",
    "itemGuid": "aec1ddda63f54eebb9b2e7dca45986a0",
    "itemName": "OurCinemaApp",
    "libraryVersion": "libver4",
    "modifiedBy": "ievgen.nikolskyi@gmail.com"
}