{
    "@class": "com.kony.gen.viz.model.component.KVizButton",
    "DNDConfig": null,
    "__parentReadjusting__": false,
    "_height_": {
        "type": "string",
        "value": "50dp"
    },
    "_left_": {
        "type": "string",
        "value": "217dp"
    },
    "_margin_": [
        6,
        6,
        6,
        6
    ],
    "_padding_": [
        0,
        0,
        0,
        0
    ],
    "_skin_": "s25980b937144e76ba6d228531fe8ee3",
    "_text_": "Button",
    "_top_": {
        "type": "string",
        "value": "23dp"
    },
    "_width_": {
        "type": "string",
        "value": "77dp"
    },
    "canUpdateUI": true,
    "containerId": true,
    "containerweight": 100,
    "contentalignment": 5,
    "displaytext": true,
    "focusskin": "sa18c4e31a4d4822bb0562c47a2c9f77",
    "id": "btnScreenings",
    "info": null,
    "isSegmentChild": true,
    "isvisible": true,
    "kuid": "c23b010573b446dc8de34538ddc8d107",
    "name": "kony.ui.Button",
    "parent": "FBox0ac8167b2ddcd44",
    "pf": "FBox0ac8167b2ddcd44",
    "wType": "Button",
    "zindex": 1
}