{
    "@class": "com.kony.gen.viz.model.component.KVizRichText",
    "DNDConfig": null,
    "__parentReadjusting__": false,
    "_height_": {
        "type": "string",
        "value": "25dp"
    },
    "_left_": {
        "type": "string",
        "value": "188dp"
    },
    "_margin_": [
        0,
        0,
        0,
        0
    ],
    "_padding_": [
        0,
        0,
        0,
        0
    ],
    "_skin_": "sa0ba945e2854a779e98af688e286fc6",
    "_text_": "Sign Up",
    "_top_": {
        "type": "string",
        "value": "534dp"
    },
    "_width_": {
        "type": "string",
        "value": "15.74%"
    },
    "_wrapping_": 2,
    "canUpdateUI": true,
    "containerweight": 100,
    "contentalignment": 4,
    "id": "txtSignUp",
    "info": null,
    "isvisible": true,
    "kuid": "c150115177304b1ba2387b912cca41cf",
    "name": "kony.ui.RichText",
    "parent": "contSignIn",
    "pf": "frmSignIn",
    "wType": "RichText",
    "widgetalignment": 5,
    "zindex": 1
}